Lab7/tutorial_placa_cyclone_iv/contador_inicial/simulation/qsim/contador_inicial.msim.vcd
$comment
	File created using the following command:
		vcd file contador_inicial.msim.vcd -direction
$end
$date
	Tue May 14 16:15:48 2019
$end
$version
	ModelSim Version 10.1d
$end
$timescale
	1ps
$end
$scope module contador_inicial_vlg_vec_tst $end
$var reg 1 ! CLOCK_CONTADOR $end
$var reg 1 " TECLA_DOWN_UP $end
$var reg 1 # TECLA_LOAD $end
$var wire 1 $ QA $end
$var wire 1 % QB $end
$var wire 1 & QC $end
$var wire 1 ' QD $end
$var wire 1 ( sampler $end
$scope module i1 $end
$var wire 1 ) gnd $end
$var wire 1 * vcc $end
$var wire 1 + unknown $end
$var tri1 1 , devclrn $end
$var tri1 1 - devpor $end
$var tri1 1 . devoe $end
$var wire 1 / QA~output_o $end
$var wire 1 0 QB~output_o $end
$var wire 1 1 QC~output_o $end
$var wire 1 2 QD~output_o $end
$var wire 1 3 CLOCK_CONTADOR~input_o $end
$var wire 1 4 CLOCK_CONTADOR~inputclkctrl_outclk $end
$var wire 1 5 inst1|48~0_combout $end
$var wire 1 6 TECLA_LOAD~input_o $end
$var wire 1 7 TECLA_LOAD~inputclkctrl_outclk $end
$var wire 1 8 inst1|48~q $end
$var wire 1 9 TECLA_DOWN_UP~input_o $end
$var wire 1 : inst1|50~0_combout $end
$var wire 1 ; inst1|50~1_combout $end
$var wire 1 < inst1|50~q $end
$var wire 1 = inst1|51~0_combout $end
$var wire 1 > inst1|51~1_combout $end
$var wire 1 ? inst1|51~q $end
$var wire 1 @ inst1|49~0_combout $end
$var wire 1 A inst1|49~1_combout $end
$var wire 1 B inst1|49~q $end
$upscope $end
$upscope $end
$enddefinitions $end
#0
$dumpvars
0!
1"
1#
1$
0%
0&
1'
x(
0)
1*
x+
1,
1-
1.
1/
00
01
12
03
04
15
16
17
08
19
1:
0;
0<
0=
0>
0?
0@
0A
0B
$end
#10000
1!
13
14
0(
18
1A
1>
0:
05
0/
0$
1;
#20000
0#
0!
06
03
07
04
1(
08
0A
0>
1:
15
1/
1$
0;
#30000
1#
1!
16
13
17
14
0(
#40000
0!
03
04
1(
#50000
1!
13
14
0(
18
1A
1>
0:
05
0/
0$
1;
#60000
0!
03
04
1(
#70000
1!
13
14
0(
1?
08
1B
1<
1@
0;
1:
15
1=
02
1/
10
11
0'
1$
1%
1&
1;
#80000
0!
03
04
1(
#90000
1!
13
14
0(
18
0A
0@
05
0/
0$
#100000
0!
03
04
1(
#110000
1!
13
14
0(
08
0B
1@
15
1/
00
1$
0%
#120000
0!
03
04
1(
#130000
1!
13
14
0(
18
0@
0:
05
0/
0$
1A
0;
#140000
0!
03
04
1(
#150000
1!
13
14
0(
08
1B
0<
1@
1:
15
1/
10
01
1$
1%
0&
#160000
0!
03
04
1(
#170000
1!
13
14
0(
18
0A
05
0/
0$
#180000
0!
03
04
1(
#190000
1!
13
14
0(
08
0B
15
0=
1/
00
1$
0%
#200000
0!
03
04
1(
#210000
1!
13
14
0(
18
0>
0:
05
0/
0$
#220000
0!
03
04
1(
#230000
1!
13
14
0(
0?
08
0@
1;
1:
15
12
1/
1'
1$
0;
#240000
0!
03
04
1(
#250000
1!
13
14
0(
18
1A
1>
0:
05
0/
0$
1;
#260000
0!
03
04
1(
#270000
0"
1!
09
13
14
0(
0A
0>
1:
0;
1?
08
1B
1<
1@
1>
1;
1A
0:
15
1=
02
1/
10
11
0'
1$
1%
1&
0A
0;
0>
#280000
0!
03
04
1(
#290000
1!
13
14
0(
0?
18
0B
0<
0@
1;
1:
05
0=
12
0/
00
01
1'
0$
0%
0&
0;
#300000
0!
03
04
1(
#310000
1!
13
14
0(
08
1>
15
1/
1$
#320000
0!
03
04
1(
#330000
1!
13
14
0(
1?
18
1@
05
02
0/
0'
0$
#340000
0!
03
04
1(
#350000
1!
13
14
0(
08
1A
15
1/
1$
#360000
0!
03
04
1(
#370000
1!
13
14
0(
18
1B
05
0/
10
0$
1%
#380000
1"
0!
19
03
04
1(
0A
0>
1=
1>
#390000
1!
13
14
0(
08
0B
15
0=
1/
00
1$
0%
#400000
0!
03
04
1(
#410000
1!
13
14
0(
18
0>
0:
05
0/
0$
#420000
0!
03
04
1(
#430000
1!
13
14
0(
0?
08
0@
1;
1:
15
12
1/
1'
1$
0;
#440000
0!
03
04
1(
#450000
0#
1!
06
13
07
14
0(
#460000
1#
0!
16
03
17
04
1(
#470000
1!
13
14
0(
18
1A
1>
0:
05
0/
0$
1;
#480000
0!
03
04
1(
#490000
1!
13
14
0(
1?
08
1B
1<
1@
0;
1:
15
1=
02
1/
10
11
0'
1$
1%
1&
1;
#500000
0!
03
04
1(
#510000
1!
13
14
0(
18
0A
0@
05
0/
0$
#520000
0!
03
04
1(
#530000
1!
13
14
0(
08
0B
1@
15
1/
00
1$
0%
#540000
0!
03
04
1(
#550000
1!
13
14
0(
18
0@
0:
05
0/
0$
1A
0;
#560000
0!
03
04
1(
#570000
1!
13
14
0(
08
1B
0<
1@
1:
15
1/
10
01
1$
1%
0&
#580000
0!
03
04
1(
#590000
1!
13
14
0(
18
0A
05
0/
0$
#600000
0!
03
04
1(
#610000
1!
13
14
0(
08
0B
15
0=
1/
00
1$
0%
#620000
0!
03
04
1(
#630000
1!
13
14
0(
18
0>
0:
05
0/
0$
#640000
0!
03
04
1(
#650000
1!
13
14
0(
0?
08
0@
1;
1:
15
12
1/
1'
1$
0;
#660000
0!
03
04
1(
#670000
1!
13
14
0(
18
1A
1>
0:
05
0/
0$
1;
#680000
0!
03
04
1(
#690000
1!
13
14
0(
1?
08
1B
1<
1@
0;
1:
15
1=
02
1/
10
11
0'
1$
1%
1&
1;
#700000
0!
03
04
1(
#710000
1!
13
14
0(
18
0A
0@
05
0/
0$
#720000
0!
03
04
1(
#730000
1!
13
14
0(
08
0B
1@
15
1/
00
1$
0%
#740000
0!
03
04
1(
#750000
1!
13
14
0(
18
0@
0:
05
0/
0$
1A
0;
#760000
0!
03
04
1(
#770000
1!
13
14
0(
08
1B
0<
1@
1:
15
1/
10
01
1$
1%
0&
#780000
0!
03
04
1(
#790000
1!
13
14
0(
18
0A
05
0/
0$
#800000
0!
03
04
1(
#810000
1!
13
14
0(
08
0B
15
0=
1/
00
1$
0%
#820000
0!
03
04
1(
#830000
1!
13
14
0(
18
0>
0:
05
0/
0$
#840000
0!
03
04
1(
#850000
1!
13
14
0(
0?
08
0@
1;
1:
15
12
1/
1'
1$
0;
#860000
0!
03
04
1(
#870000
1!
13
14
0(
18
1A
1>
0:
05
0/
0$
1;
#880000
0!
03
04
1(
#890000
1!
13
14
0(
1?
08
1B
1<
1@
0;
1:
15
1=
02
1/
10
11
0'
1$
1%
1&
1;
#900000
0!
03
04
1(
#910000
1!
13
14
0(
18
0A
0@
05
0/
0$
#920000
0!
03
04
1(
#930000
1!
13
14
0(
08
0B
1@
15
1/
00
1$
0%
#940000
0!
03
04
1(
#950000
1!
13
14
0(
18
0@
0:
05
0/
0$
1A
0;
#960000
0!
03
04
1(
#970000
1!
13
14
0(
08
1B
0<
1@
1:
15
1/
10
01
1$
1%
0&
#980000
0!
03
04
1(
#990000
1!
13
14
0(
18
0A
05
0/
0$
